(module Monerodev:Panel_Mousetab_25mm_Double (layer F.Cu) (tedit 5B993D89)
  (fp_text reference TAB** (at 0 0 90 unlocked) (layer F.SilkS)
    (effects (font (size 0.8 0.8) (thickness 0.13)))
  )
  (fp_text value Panel_Mousetab_25mm_Double (at 0 3.5) (layer F.Fab)
    (effects (font (size 1 1) (thickness 0.15)))
  )
  (fp_line (start 1.25 -2.2) (end 1.25 2.2) (layer F.Fab) (width 0.15))
  (fp_line (start -1.25 -2.2) (end -1.25 2.2) (layer F.Fab) (width 0.15))
  (fp_line (start 2.1 -2.6) (end 2.1 2.6) (layer F.CrtYd) (width 0.15))
  (fp_line (start 2.1 2.6) (end -2.1 2.6) (layer F.CrtYd) (width 0.15))
  (fp_line (start -2.1 2.6) (end -2.1 -2.6) (layer F.CrtYd) (width 0.15))
  (fp_line (start -2.1 -2.6) (end 2.1 -2.6) (layer F.CrtYd) (width 0.15))
  (pad "" np_thru_hole circle (at 1.35 2) (size 0.5 0.5) (drill 0.5) (layers *.Cu))
  (pad "" np_thru_hole circle (at 1.35 1.2) (size 0.5 0.5) (drill 0.5) (layers *.Cu))
  (pad "" np_thru_hole circle (at 1.35 0.4) (size 0.5 0.5) (drill 0.5) (layers *.Cu))
  (pad "" np_thru_hole circle (at -1.35 2) (size 0.5 0.5) (drill 0.5) (layers *.Cu))
  (pad "" np_thru_hole circle (at -1.35 1.2) (size 0.5 0.5) (drill 0.5) (layers *.Cu))
  (pad "" np_thru_hole circle (at -1.35 0.4) (size 0.5 0.5) (drill 0.5) (layers *.Cu))
  (pad "" np_thru_hole circle (at 1.35 -0.4) (size 0.5 0.5) (drill 0.5) (layers *.Cu))
  (pad "" np_thru_hole circle (at 1.35 -1.2) (size 0.5 0.5) (drill 0.5) (layers *.Cu))
  (pad "" np_thru_hole circle (at 1.35 -2) (size 0.5 0.5) (drill 0.5) (layers *.Cu))
  (pad "" np_thru_hole circle (at -1.35 -2) (size 0.5 0.5) (drill 0.5) (layers *.Cu))
  (pad "" np_thru_hole circle (at -1.35 -1.2) (size 0.5 0.5) (drill 0.5) (layers *.Cu))
  (pad "" np_thru_hole circle (at -1.35 -0.4) (size 0.5 0.5) (drill 0.5) (layers *.Cu))
)
