(footprint "Sensirion_SGP30" (version 20211014) (generator pcbnew)
  (layer "F.Cu")
  (tedit 0)
  (descr "Sensirion SGP30 Gas Sensor")
  (attr smd)
  (fp_text reference "REF**" (at 0 -2.55 unlocked) (layer "F.SilkS")
    (effects (font (size 1 1) (thickness 0.15)))
    (tstamp 3ec5dd16-bf2a-401d-9cff-a0a7932951cc)
  )
  (fp_text value "Sensirion_SGP30" (at 0 2.5 unlocked) (layer "F.Fab")
    (effects (font (size 1 1) (thickness 0.15)))
    (tstamp 3afbaa08-9852-45de-9b7f-c0d0cf048225)
  )
  (fp_text user "${REFERENCE}" (at 0 4.05 unlocked) (layer "F.Fab")
    (effects (font (size 1 1) (thickness 0.15)))
    (tstamp 3daa7ed1-32ae-4884-b6b2-6ff051624ee2)
  )
  (fp_line (start 1.35 -1.1) (end 1.35 -1.35) (layer "F.SilkS") (width 0.12) (tstamp 2d9112e5-8cc8-49cc-94c0-4880798fc7c6))
  (fp_line (start -1.35 1.1) (end -1.35 1.35) (layer "F.SilkS") (width 0.12) (tstamp 32373cd2-ebf2-4504-9dcf-4eeb22696f4c))
  (fp_line (start -1 1.35) (end -0.7 1.35) (layer "F.SilkS") (width 0.12) (tstamp 524b9a64-1d1e-4c16-9c9b-4dd0eaf3e7a9))
  (fp_line (start 1 -1.35) (end 0.7 -1.35) (layer "F.SilkS") (width 0.12) (tstamp 5346dc02-8d3e-42e5-bfa3-2dec7057fdda))
  (fp_line (start -1 -1.35) (end -0.7 -1.35) (layer "F.SilkS") (width 0.12) (tstamp 6de9ef12-2252-4b46-9b23-acc52746bff9))
  (fp_line (start -1.3 -1.35) (end -1 -1.35) (layer "F.SilkS") (width 0.12) (tstamp 6e0b4f56-49d8-4ce8-af60-938c245debba))
  (fp_line (start 1 1.35) (end 0.7 1.35) (layer "F.SilkS") (width 0.12) (tstamp 7d2d8874-6770-4f47-8d5c-dbd128512349))
  (fp_line (start -1.35 -1.1) (end -1.35 -1.35) (layer "F.SilkS") (width 0.12) (tstamp 939aaef7-ad48-4228-b766-4423d7418927))
  (fp_line (start 1.3 -1.35) (end 1 -1.35) (layer "F.SilkS") (width 0.12) (tstamp acdbd6e9-0a42-4a6e-9e6e-bdde6e8b500e))
  (fp_line (start 1.35 1.1) (end 1.35 1.35) (layer "F.SilkS") (width 0.12) (tstamp ce39ee13-233d-4cc3-b0a0-55ec6af3759b))
  (fp_line (start 1.3 1.35) (end 1 1.35) (layer "F.SilkS") (width 0.12) (tstamp e7481875-5bd3-4c65-9a37-307081a64754))
  (fp_line (start -1.3 1.35) (end -1 1.35) (layer "F.SilkS") (width 0.12) (tstamp f592eac9-66f8-458b-a707-e8489c79ae5d))
  (fp_circle (center -1.85 -0.8) (end -1.643845 -0.8) (layer "F.SilkS") (width 0.12) (fill solid) (tstamp 35ced2f8-a8cc-44c3-9648-e872a0ed06d7))
  (fp_rect (start -1.65 -1.4) (end 1.65 1.4) (layer "F.CrtYd") (width 0.05) (fill none) (tstamp af31df00-0bf2-45b6-9564-ac92b007afec))
  (fp_rect (start -1.225 -1.225) (end 1.225 1.225) (layer "F.Fab") (width 0.1) (fill none) (tstamp 3abdabe7-d883-4de6-b908-763e8f47c5f5))
  (pad "" smd rect (at -1.25 0) (size 0.55 0.4) (layers "F.Paste") (tstamp 0ded0d2d-3f71-421f-9e36-0c5bcaa718f2))
  (pad "" smd roundrect (at 0 0) (size 1.05 1.5) (layers "F.Paste") (roundrect_rratio 0)
    (chamfer_ratio 0.24) (chamfer top_left) (tstamp 4c663d51-5cdb-4e68-ad86-abda497fa9f2))
  (pad "" smd rect (at 1.25 0.8) (size 0.55 0.4) (layers "F.Paste") (tstamp 4f4bba19-afa8-4bc4-bdff-a9a0025af6aa))
  (pad "" smd rect (at 1.25 -0.8) (size 0.55 0.4) (layers "F.Paste") (tstamp 6bd9f239-07f9-4557-9778-7d64bd1d794e))
  (pad "" smd rect (at 1.25 0) (size 0.55 0.4) (layers "F.Paste") (tstamp 838eae94-eeb8-41ba-8c8e-9f631f304626))
  (pad "" smd rect (at -1.25 -0.8) (size 0.55 0.4) (layers "F.Paste") (tstamp 931f167e-30c4-4034-8117-cdc0af151d1b))
  (pad "" smd rect (at -1.25 0.8) (size 0.55 0.4) (layers "F.Paste") (tstamp b3a5226a-efd6-4686-a3d9-2ed4c3443824))
  (pad "1" smd rect (at -1.15 -0.8) (size 0.55 0.4) (layers "F.Cu" "F.Mask") (tstamp dd90fb6f-fc62-4ea1-9191-07e3c1808ddb))
  (pad "2" smd rect (at -1.15 0) (size 0.55 0.4) (layers "F.Cu" "F.Mask") (tstamp c85102d6-8238-4614-b72b-d48b3291e25f))
  (pad "3" smd rect (at -1.15 0.8) (size 0.55 0.4) (layers "F.Cu" "F.Mask") (tstamp 5381aaaa-f869-4809-8481-5f96bc1bf934))
  (pad "4" smd rect (at 1.15 0.8) (size 0.55 0.4) (layers "F.Cu" "F.Mask") (tstamp 65861792-d735-41ab-83a2-c98c60bcde18))
  (pad "5" smd rect (at 1.15 0) (size 0.55 0.4) (layers "F.Cu" "F.Mask") (tstamp 8f7d9040-512e-45ba-b17d-cb5b9d55296a))
  (pad "6" smd rect (at 1.15 -0.8) (size 0.55 0.4) (layers "F.Cu" "F.Mask") (tstamp 55cf6409-f8c5-4955-9aa8-9b09ac4fac10))
  (pad "7" smd roundrect (at 0 0) (size 1.25 1.7) (layers "F.Cu" "F.Mask") (roundrect_rratio 0)
    (chamfer_ratio 0.24) (chamfer top_left) (tstamp 4219d82a-130e-44c7-b615-82a2418f6818))
)
