(module Monerodev:TestPoint_Keystone_5190 (layer F.Cu) (tedit 5E7FB108)
  (descr "SMT Test Point Miniature 5190, https://www.keyelco.com/category.cfm/Test-Points-Tips-Probes-Clips/Color-Keyed-SMT-Test-Points/id/1346/")
  (tags "test point smt color")
  (attr smd)
  (fp_text reference REF** (at 0 -2.25) (layer F.SilkS)
    (effects (font (size 1 1) (thickness 0.15)))
  )
  (fp_text value TestPoint_Keystone_5190 (at 0 2.25) (layer F.Fab)
    (effects (font (size 1 1) (thickness 0.15)))
  )
  (fp_text user %R (at 0 0) (layer F.Fab)
    (effects (font (size 0.9 0.9) (thickness 0.135)))
  )
  (fp_line (start 0 0.5) (end 0 1) (layer F.Fab) (width 0.15))
  (fp_line (start 0 -1) (end 0 -0.5) (layer F.Fab) (width 0.15))
  (fp_line (start -1.9 -0.5) (end 1.9 -0.5) (layer F.Fab) (width 0.15))
  (fp_line (start 1.9 0.5) (end -1.9 0.5) (layer F.Fab) (width 0.15))
  (fp_line (start 1.25 -1) (end -1.25 -1) (layer F.Fab) (width 0.15))
  (fp_line (start -1.25 -1) (end -1.25 -0.5) (layer F.Fab) (width 0.15))
  (fp_line (start -1.25 -0.5) (end -1.75 -0.5) (layer F.Fab) (width 0.15))
  (fp_line (start -1.9 -0.5) (end -1.9 0.5) (layer F.Fab) (width 0.15))
  (fp_line (start -1.75 0.5) (end -1.25 0.5) (layer F.Fab) (width 0.15))
  (fp_line (start -1.25 0.5) (end -1.25 1) (layer F.Fab) (width 0.15))
  (fp_line (start -1.25 1) (end 1.25 1) (layer F.Fab) (width 0.15))
  (fp_line (start 1.25 1) (end 1.25 0.5) (layer F.Fab) (width 0.15))
  (fp_line (start 1.25 0.5) (end 1.75 0.5) (layer F.Fab) (width 0.15))
  (fp_line (start 1.9 0.5) (end 1.9 -0.5) (layer F.Fab) (width 0.15))
  (fp_line (start 1.75 -0.5) (end 1.25 -0.5) (layer F.Fab) (width 0.15))
  (fp_line (start 1.25 -0.5) (end 1.25 -1) (layer F.Fab) (width 0.15))
  (fp_line (start -1.95 -1.7) (end 1.95 -1.7) (layer F.CrtYd) (width 0.05))
  (fp_line (start 1.95 -1.7) (end 1.95 1.7) (layer F.CrtYd) (width 0.05))
  (fp_line (start 1.95 1.7) (end -1.95 1.7) (layer F.CrtYd) (width 0.05))
  (fp_line (start -1.95 1.7) (end -1.95 -1.7) (layer F.CrtYd) (width 0.05))
  (fp_line (start -1.7 -1.45) (end 1.7 -1.45) (layer F.SilkS) (width 0.15))
  (fp_line (start 1.7 -1.45) (end 1.7 1.45) (layer F.SilkS) (width 0.15))
  (fp_line (start 1.7 1.45) (end -1.7 1.45) (layer F.SilkS) (width 0.15))
  (fp_line (start -1.7 1.45) (end -1.7 -1.45) (layer F.SilkS) (width 0.15))
  (pad 1 smd rect (at 0 0) (size 3 2.5) (layers F.Cu F.Paste F.Mask))
  (model ${KISYS3DMOD}/TestPoint.3dshapes/TestPoint_Loop_D1.80mm_Drill1.0mm_Beaded.wrl
    (at (xyz 0 0 0))
    (scale (xyz 1 1 1))
    (rotate (xyz 0 0 0))
  )
)
